%!PS-Adobe-2.0 EPSF-2.0
%%BoundingBox: 0 481 568 843
%%EndComments

%%BeginProcSet
/PSSave save def
/PSDict 200 dict def
PSDict begin
/@restore /restore load def
/restore
   {vmstatus pop
    dup @VMused lt {pop @VMused} if
    exch pop exch @restore /@VMused exch def
   } def
/@pri
   {
    ( ) print
    (                                       ) cvs print
   } def
/@start
   {
    vmstatus pop /@VMused exch def pop
   } def
/@end
   {flush
    end
    PSSave restore
   } def
/bop
   {
    /SaveImage save def
   } def
/eop
   {
    showpage
    SaveImage restore
   } def
/@line
   {1 setlinecap
    1 setlinejoin
   } def
/@SetPlot
   {
    2.834646 2.834646 scale
      0.000 170.079 translate
     1.00 setlinewidth
   } def
/C {setrgbcolor} def
/D {lineto} def
/M {moveto} def
/S {stroke} def
/Z {stroke newpath} def
%%EndProcSet
end

%%BeginSetup
PSDict begin
@start
@line
@SetPlot

bop
%%EndSetup
200.00   0.00 M   0.53   0.00 D   0.53   4.70 D  84.49   8.95 D  84.49  17.92 D
  0.53   8.95 D   0.53  11.81 D  84.24  26.89 D  84.24  33.98 D
  0.53  15.13 D   0.53  17.92 D  84.24  40.11 D  84.24  48.61 D
  0.53  20.73 D S
  0.53  20.73 M   0.00  23.60 D  56.42  45.74 D  56.42  51.87 D   4.75  30.21 D
  4.75  54.69 D   6.81  57.55 D  10.53  56.12 D  10.53  35.36 D
 12.84  36.79 D  12.84  61.80 D  15.23  66.50 D  19.43  65.12 D
 19.43  51.87 D  22.04  51.42 D  22.04  70.27 D  25.99  74.97 D
 30.99  74.07 D  30.99  60.37 D  29.38  60.37 D  29.38  44.36 D
 34.13  44.36 D  34.13  82.54 D  39.13  87.29 D  44.91  84.95 D
 44.91  68.84 D  43.30  69.34 D  43.30  51.87 D  50.64  51.87 D
 50.64  97.67 D  57.23 104.73 D  63.01 100.48 D  63.26  83.97 D
 66.93  81.15 D  66.93  78.29 D  73.21  76.40 D  72.71  74.07 D
 64.56  76.93 D  64.56  56.12 D  66.15  56.12 D  66.15  70.77 D
 74.54  67.93 D  74.54 117.97 D  82.68 126.92 D S
 82.68 126.92 M  82.68  60.37 D  71.15  54.69 D  71.15  50.49 D  82.68  54.69 D
 88.46  53.31 D  88.46   8.95 D 125.99   8.95 D 125.99  13.19 D
 95.00  14.60 D  95.80  27.85 D 125.99  23.60 D 125.99  28.32 D
 95.00  32.55 D  95.00  41.49 D 125.99  35.36 D 125.99  41.49 D
 95.00  47.17 D  95.00  54.29 D 126.24  47.17 D 125.99  51.87 D
 93.16  60.37 D  93.16  66.50 D 125.99  57.55 D 125.99  61.80 D
 93.16  72.16 D  93.16  76.93 D 129.40  65.12 D 129.40  70.77 D
 93.16  82.54 D  93.16  89.15 D 129.40  75.47 D 129.40  81.15 D
 91.61  94.35 D  91.61 122.67 D  82.68 126.92 D  82.68 126.44 D S
149.08  83.97 M 149.08 113.68 D 143.30 116.54 D 133.60 112.29 D 133.60  88.67 D
131.77  87.29 D 131.77  97.67 D 130.18  95.78 D 130.18  81.15 D
133.60  82.54 D 135.16  85.85 D 139.11  87.29 D 140.94  82.54 D
140.94  57.55 D 127.82  53.76 D 128.63  47.17 D S
127.82  47.17 M 140.94  50.49 D 140.94  44.36 D 127.82  41.49 D 127.82  33.98 D
140.94  36.79 D 140.94  31.11 D 127.82  28.32 D 127.82  20.73 D
143.30  22.19 D 143.30  13.19 D 127.82  11.81 D 127.82   6.13 D
163.78   5.68 D 163.51  11.81 D 149.86  13.19 D 149.86  20.73 D
163.78  20.73 D 167.43  22.19 D 198.17  17.92 D 198.17  23.60 D
167.18  26.89 D 163.78  24.98 D 149.86  26.89 D 149.86  33.98 D
163.78  32.55 D 175.32  33.98 D 198.17  31.11 D 198.17  35.36 D
175.32  40.11 D 164.29  38.70 D 149.86  41.49 D 149.86  49.99 D
163.78  44.36 D 175.85  45.74 D 198.17  41.49 D 198.17  45.74 D
175.32  51.87 D 163.78  48.61 D 149.86  53.31 D 149.86  58.99 D
163.78  53.31 D 175.32  56.12 D 197.39  49.99 D 197.39  54.69 D
175.32  61.80 D 164.04  57.55 D 149.86  63.69 D 149.86  67.93 D
163.78  63.69 D 175.32  66.50 D 198.17  58.99 D 197.39  62.25 D
175.32  69.82 D 163.78  66.50 D 149.86  71.70 D 149.86  81.15 D
152.22  78.29 D 152.22  91.48 D 157.23  88.67 D 157.23  76.93 D
163.78  72.16 D 175.32  75.47 D 184.24  72.16 D 184.24  82.54 D
193.42  82.54 D 198.17  79.72 D 198.17  66.50 D 200.00  63.69 D
200.00   0.00 D S
200.00   0.00 M  1.000  1.000  1.000 C
 S
eop
@end
%Trailer
