\relax 
\providecommand\hyper@newdestlabel[2]{}
\newacro{IMU}[\AC@hyperlink{IMU}{IMU}]{inertial measurement unit}
\newacro{sEMG}[\AC@hyperlink{sEMG}{sEMG}]{surface electromyography}
\newacro{EMG}[\AC@hyperlink{EMG}{EMG}]{electromyography}
\newacro{SDK}[\AC@hyperlink{SDK}{SDK}]{source development kit}
\newacro{API}[\AC@hyperlink{API}{API}]{application programming interface}
\newacro{DOF}[\AC@hyperlink{DOF}{DOF}]{Langform}
\newacro{MEMS}[\AC@hyperlink{MEMS}{Kurzform}]{microelectromechanical system}
\newacro{MUAP}[\AC@hyperlink{MUAP}{MUAP}]{motor unit action potential}
\newacro{MUAPT}[\AC@hyperlink{MUAPT}{MUAPT}]{motor unit action potential train}
\newacro{MVC}[\AC@hyperlink{MVC}{MVC}]{maximum voluntary contraction}
\newacro{RVC}[\AC@hyperlink{RVC}{RVC}]{reference voluntary contraction}
\newacro{FFT}[\AC@hyperlink{FFT}{FFT}]{fast fourier transform}
\newacro{ARV}[\AC@hyperlink{ARV}{ARV}]{average rectified value}
\newacro{MAV}[\AC@hyperlink{MAV}{MAV}]{mean amplitude value}
\newacro{RMS}[\AC@hyperlink{RMS}{RMS}]{root mean square}
\newacro{ZC}[\AC@hyperlink{ZC}{ZC}]{zero crossing}
\newacro{MAD}[\AC@hyperlink{MAD}{MAD}]{mean absolute deviation}
\newacro{ANN}[\AC@hyperlink{ANN}{ANN}]{artificial neural network}
\@setckpt{include/abbreviations2}{
\setcounter{page}{2}
\setcounter{equation}{0}
\setcounter{enumi}{0}
\setcounter{enumii}{0}
\setcounter{enumiii}{0}
\setcounter{enumiv}{0}
\setcounter{footnote}{0}
\setcounter{mpfootnote}{0}
\setcounter{part}{0}
\setcounter{chapter}{0}
\setcounter{section}{0}
\setcounter{subsection}{0}
\setcounter{subsubsection}{0}
\setcounter{paragraph}{0}
\setcounter{subparagraph}{0}
\setcounter{figure}{0}
\setcounter{table}{0}
\setcounter{LT@tables}{0}
\setcounter{LT@chunks}{0}
\setcounter{float@type}{8}
\setcounter{Item}{0}
\setcounter{Hfootnote}{0}
\setcounter{bookmark@seq@number}{0}
\setcounter{definition}{0}
\setcounter{satz}{0}
\setcounter{AM@survey}{0}
\setcounter{subfigure}{0}
\setcounter{lofdepth}{1}
\setcounter{subtable}{0}
\setcounter{lotdepth}{1}
\setcounter{listing}{0}
\setcounter{ContinuedFloat}{0}
\setcounter{lstnumber}{1}
\setcounter{parentequation}{0}
\setcounter{r@tfl@t}{0}
}
